{
	"Emote": {
		"link": "Emote"
		},
	"Umbrella": {
		"link": "Umbrella"
		},
	"Gravestone": {
		"link": "Gravestone"
		},
	"Glasses": {
		"link": "Eye Accessories"
		},
	"Beard": {
		"link": "Facial Hair"
		},
	"Clothes": {
		"link": "Outfits"
		},
	"Hat": {
		"link": "Hats"
		},
	"MeleeSkin": {
		"link": "Melee weapon"
		},
	"Super Animal Pass Season 0": {
		"list": ["Pink Cowboy Hat", "Lollipop", "Black Triangle Shades", "3D Glasses", "School Uniform (Boy)", "School Uniform (Girl)", "Lightbulb", "Swordfish", "SARturday Night Fever", "Maid Outfit"]
		},
	"Starter Pack DLC": {
		"list": ["Twilight Newsboy Hat", "Twilight Overalls", "Super Twilight Fennec Fox"]
		},
	"Beta": {
		"list": ["Beta Tee", "!Keyme Tee", "Beta Blue Beanie"]
		},
	"Founder's Edition": {
		"list": ["Golden M16", "Heart Glasses", "Pixile Purple Tee", "Pixile White Tee", "Halo", "Charcoal Suit & Pixile Tie", "White Shutter Shades", "Golden Silenced Pistol", "Emoji (Death) Explosion", "Juggling Roulette"]
		},
	"SAR Tonight": {
		"list": ["SAR Tonight Umbrella", "SAR Tonight Microphone", "Tiger Silhouette Tee", "SAR Tonight Tee", "Donk Tee", "Howl Tee", "Golden Video Jacket", "SAR Tonight Cap", "Fox Silhouette Tee"]
		},
	"Christmas 2020": {
		"list": ["Candy Cane", "Festive Sweater" ,"Santa Outfit", "Santa Hat"]
		},
	"Year of the Super Pig 2019": {
		"list": ["Lunar Shirt", "Lunar Dress", "Lunar Black Hat", "Lunar Red Hat", "Lunar Vest", "Bamboo Stick", "Tai Chi Sword", "Lunar Traditional Outfit"]
		},
	"Super Duos Day": {
		"list": ["Duos Day Rose"]
		},
	"St. Pawtrick's Day 2019": {
		"list": ["Lucky Beard", " Lucky Top Hat", " Lucky Suit"]
		},
	"Moderation items": {
		"list": ["Ruler"]
		},
	"Super Artist": {
		"list": ["Paintbrush"]
		},
	"Content creator items": {
		"list": ["Purple Robe", "Red Robe", "Star Glasses"]
		},
	"April Fools' Day 2019": {
		"list": ["Banana"]
		},
	"Super Easter Event 2019": {
		"list": ["Yellow Bow", "Easter Bow", "Bunny Ears"]
		},
	"DreamHack Dallas 2019": {
		"list": ["DreamHack Umbrella"]
		},
	"Pride 2019": {
		"list": ["Baseball Cap (Rainbow)", "Rainbow Umbrella"]
		},
	"Canada Day 2019": {
		"list": ["Mountie Outfit", "Mountie Hat", "Hockey Stick"]
		},
	"Independence Day 2019": {
		"list": ["Uncle Sam Outfit", "Stars & Stripes Hat", "Stars & Stripes Baseball Bat"]
		},
	"Super Summer Royale 2019": {
		"list": ["Fish Swim Shorts", "Floral Swimsuit", "White Apron", "Hot Dog Fork", "Straw Umbrella", "Lifebuoy", "Meat Skewer", "Fruit Skewer", "Yellow Lei Hula Skirt", "Popsicle", "Duck Floatie", "Fruit Hat"]
		},
	"Super Squids": {
		"list": ["Squid Hat"]
		},
	"Northernlion Live Super Show": {
		"list": ["Jeans Vest", "Police Hat", "Police Outfit", "Velvet Robe", "Red Button Up Shirt", "Red Striped Shirt", "Skull Beanie", "Egg Umbrella", "Josh Umbrella"]
		},
	"Super Halloween 2019": {
		"list": ["Halloween Tee", "Black Masquerade Mask", "Pumpkin Umbrella", "Pumpkin Gravestone", "Super Bat Mask", "Pumpkin Hat", "Caveman Costume", "Witch's Broom", "Pirate's Cutlass", "Machete", "Candy Corn Umbrella", "Witch Hat", "Killer Hocky Mask", "Spider Umbrella", "Skeleton Costume", "Spider Dress", "Witch Costume", "Banana Costume", "Vampire Outfit", "Super Bat Costume"]
		},
	"Day Of The Dead 2019": {
		"list": ["Mariachi Outfit", "Mariachi Hat"]
		},
	"Super 1 Year Anniversary": {
		"list": ["Anniversary Cake Gravestone", "Pixile Party Hat"]
		},
	"Super CRISPRmas 2019": {
		"list": ["Holly Bow", "Red Plaid Scarf", "Spearmint Candy Cane", "Festive Umbrella", "Santa Beard", "Slay Bells", "Blue Down Jacket", "Red Nose", "CRISPRmas Tree", "Peppermint Thomas Gun", "CRISPRmas Sweater", "Present Umbrella", "Elf Hat", "Wreath Necklace", "Festive Candy Cane", "Snowflake Umbrella", "Antlers Headband", "Elf Outfit", "Festive Lights Outfit", "Firework", "New Years Party Hat", "Blue Pom Beanie", "White Down Jacket", "New Years Dress"]
		},
	"Year of the Super Rat": {
		"list": ["Red Paper Fan", "Bamboo Hat", "Pink Lunar Shirt", "Wooden Chopsticks", "Dadao", "Mandarin Hat", "Guandao", "Hanfu", "Yellow Tang Suit"]
		},
	"St. Pawtrick's Day 2020": {
		"list": ["Lucky Bow", "Lucky Dress", "Lucky Shirt", "Lucky Hunting Rifle"]
		},
	"Super Easter 2020": {
		"list": ["Blue Bow", "Yellow Bow", "Pink Bow", "Easter Bow", "Bunny Ears", "Flower Crown", "Flower Glasses", "Easter Sun Hat", "Easter Suspenders", "Red Plaid Dress", "Eggshell Hat", "Easter Suit", "Easter Dress", "Chocolate Bar"]
		},
	"Cherry Blossom Season": {
		"list": ["Sakura Kimono", "Sakura Fan", "Sakura Umbrella"]
		},
	"Summer Royale 2020": {
		"list": ["Blue Sport Sunglasses", "White Bermuda Shorts", "Blue Polo Shirt", "Yellow Plastic Shovel", "Vintage Round Glasses", "Vintage Floral Swimsuit", "Badminton Racket", "Vintage Floral Dress", "Orange Pastel Overalls"]
		},
	"Super Halloween 2020": {
		"list": ["Cauldron Gravestone", "Bolts Hat", "Skull Bow", "Bat Wing Outfit", "Skeleton AK", "Candycorn Sniper", "Frankenstein Outfit", "Pumpkin Costume", "Devil Pitchfork"]
		}
} 
